<?xml version="1.0" encoding="UTF-8" standalone="no"?>
<!-- Created with Inkscape (http://www.inkscape.org/) -->

<svg
   xmlns:dc="http://purl.org/dc/elements/1.1/"
   xmlns:cc="http://creativecommons.org/ns#"
   xmlns:rdf="http://www.w3.org/1999/02/22-rdf-syntax-ns#"
   xmlns:svg="http://www.w3.org/2000/svg"
   xmlns="http://www.w3.org/2000/svg"
   xmlns:sodipodi="http://sodipodi.sourceforge.net/DTD/sodipodi-0.dtd"
   xmlns:inkscape="http://www.inkscape.org/namespaces/inkscape"
   version="1.1"
   id="svg2"
   width="270"
   height="110"
   viewBox="0 0 270 110"
   sodipodi:docname="logo_nodraw.svg"
   inkscape:version="0.92.2 5c3e80d, 2017-08-06"
   inkscape:export-filename="/home/lip/code/elpoblet/static/img/logo_nodraw.png"
   inkscape:export-xdpi="157.09091"
   inkscape:export-ydpi="157.09091">
  <metadata
     id="metadata8">
    <rdf:RDF>
      <cc:Work
         rdf:about="">
        <dc:format>image/svg+xml</dc:format>
        <dc:type
           rdf:resource="http://purl.org/dc/dcmitype/StillImage" />
        <dc:title></dc:title>
      </cc:Work>
    </rdf:RDF>
  </metadata>
  <defs
     id="defs6">
    <clipPath
       id="clipPath5810"
       clipPathUnits="userSpaceOnUse">
      <path
         sodipodi:nodetypes="ccccccccccccc"
         inkscape:connector-curvature="0"
         id="path5812"
         d="m 1735.7797,374.78188 c -37.415,55.70356 -9.4133,185.93453 -1.985,284.55582 l 156.9342,-14.96975 72.5959,-3.0227 122.8404,19.82323 49.9143,3.72401 10.7615,-104.01662 -9.7326,-145.22494 -16.1762,-34.37974 -10.8051,-9.32204 -9.5339,-13.55932 -20.9322,-21.61017 z"
         style="fill:none;fill-rule:evenodd;stroke:#000000;stroke-width:1px;stroke-linecap:butt;stroke-linejoin:miter;stroke-opacity:1" />
    </clipPath>
    <clipPath
       id="clipPath6884"
       clipPathUnits="userSpaceOnUse" />
    <clipPath
       id="clipPath6890"
       clipPathUnits="userSpaceOnUse" />
    <clipPath
       clipPathUnits="userSpaceOnUse"
       id="clipPath5810-1">
      <path
         style="fill:none;fill-rule:evenodd;stroke:#000000;stroke-width:1px;stroke-linecap:butt;stroke-linejoin:miter;stroke-opacity:1"
         d="m 1735.7797,374.78188 c -37.415,55.70356 -9.4133,185.93453 -1.985,284.55582 l 156.9342,-14.96975 72.5959,-3.0227 122.8404,19.82323 49.9143,3.72401 10.7615,-104.01662 -9.7326,-145.22494 -16.1762,-34.37974 -10.8051,-9.32204 -9.5339,-13.55932 -20.9322,-21.61017 z"
         id="path5812-8"
         inkscape:connector-curvature="0"
         sodipodi:nodetypes="ccccccccccccc" />
    </clipPath>
    <clipPath
       clipPathUnits="userSpaceOnUse"
       id="clipPath6884-7">
      <path
         style="fill:none;fill-rule:evenodd;stroke:#000000;stroke-width:1px;stroke-linecap:butt;stroke-linejoin:miter;stroke-opacity:1"
         d="m 3703.322,2380.2102 c -10.3965,97.0969 -5.7378,190.0886 6.1482,283.2839 l 46.1626,-6.6799 -22.3266,-166.7433 -3.4874,-104.3169 z"
         id="path6886-9"
         inkscape:connector-curvature="0"
         sodipodi:nodetypes="cccccc" />
    </clipPath>
    <clipPath
       clipPathUnits="userSpaceOnUse"
       id="clipPath6890-2">
      <path
         style="fill:none;fill-rule:evenodd;stroke:#000000;stroke-width:1px;stroke-linecap:butt;stroke-linejoin:miter;stroke-opacity:1"
         d="m 4155.8541,2388.5996 c 28.2393,101.6268 32.8023,165.4783 13.2309,256.9235 l -73.2316,26.7404 33.7324,-196.5104 -26.0383,-75.4893 z"
         id="path6892-0"
         inkscape:connector-curvature="0"
         sodipodi:nodetypes="cccccc" />
    </clipPath>
  </defs>
  <sodipodi:namedview
     pagecolor="#6c8015"
     bordercolor="#2b2b2b"
     borderopacity="1"
     objecttolerance="10"
     gridtolerance="10"
     guidetolerance="10"
     inkscape:pageopacity="0"
     inkscape:pageshadow="2"
     inkscape:window-width="1366"
     inkscape:window-height="708"
     id="namedview4"
     showgrid="false"
     inkscape:zoom="2.8284272"
     inkscape:cx="166.52383"
     inkscape:cy="59.389442"
     inkscape:window-x="0"
     inkscape:window-y="0"
     inkscape:window-maximized="1"
     inkscape:current-layer="svg2"
     showguides="false" />
  <g
     transform="matrix(0.97227001,0,0,0.97227001,482.2649,-713.31634)"
     id="g5199" />
  <g
     id="g5199-3"
     transform="matrix(0.97227001,0,0,0.97227001,482.2649,-713.31634)" />
  <g
     transform="matrix(0.19935997,0,0,0.19935997,-851.22137,-39.793345)"
     id="g4956"
     style="fill:#ffffff;fill-opacity:1">
    <path
       id="path910"
       d="m 5203.4911,339.5904 c -7.2781,3.18419 -15.0093,9.66697 -23.1972,19.44701 -8.188,9.78003 -16.377,21.71893 -24.5649,35.82038 -7.9606,14.10144 -15.6941,29.6818 -23.1997,46.74 -7.5056,16.83076 -14.1016,34.00411 -19.7877,51.5172 -5.4586,17.51309 -9.8929,34.68399 -13.3046,51.51476 -3.4116,16.83075 -5.1179,31.95563 -5.1179,45.37474 0,4.09397 0.4555,7.05099 1.3653,8.87052 0.4549,0.90978 1.2501,2.04729 2.3874,3.41193 1.1372,1.13722 2.2747,2.15903 3.4119,3.0688 2.5019,1.81954 4.3214,3.41253 5.4586,4.77718 1.1372,1.13721 1.9349,2.27472 2.3898,3.41195 1.5921,4.54881 3.5248,6.82378 5.7993,6.82378 0.4549,-5.68605 2.6142,-13.07733 6.4807,-22.17504 4.094,-9.32515 8.9838,-19.22044 14.6699,-29.68281 5.686,-10.6898 11.9423,-21.38036 18.7656,-32.07017 7.0507,-10.6898 13.8732,-20.35613 20.4691,-28.99896 6.8233,-8.64282 12.9638,-15.69191 18.4225,-21.15053 5.686,-5.68608 10.1228,-8.52983 13.307,-8.52983 2.9567,0.90977 4.434,2.7293 4.434,5.4586 -2.047,12.73679 -5.9125,26.04214 -11.5986,39.91615 -5.6861,13.87401 -12.6243,27.29262 -20.8123,40.25685 -8.1879,12.7368 -17.2855,24.67812 -27.293,35.82281 -10.0074,10.91725 -20.2425,19.90156 -30.7049,26.95224 0,1.13723 0.682,2.27472 2.0467,3.41195 1.5921,1.13723 3.5248,2.16145 5.7993,3.07129 2.5019,1.13711 5.1191,1.93244 7.8484,2.38736 2.9567,0.68231 5.8005,1.0221 8.5298,1.0221 6.3684,0 13.0777,-2.15934 20.1285,-6.48075 7.2782,-4.32141 14.4405,-10.00883 21.4912,-17.05963 7.2781,-7.27815 14.1032,-15.69371 20.4716,-25.2463 6.5958,-9.55259 12.3941,-19.55872 17.3979,-30.02107 5.2312,-10.46237 9.3257,-21.03967 12.2824,-31.72948 3.1842,-10.91725 4.8905,-21.15232 5.1179,-30.70492 -0.4548,-4.09396 -1.5924,-7.95952 -3.4119,-11.5986 -1.8195,-3.86653 -4.0945,-7.39229 -6.8238,-10.57649 -2.7293,-3.41164 -5.7996,-6.25296 -9.2113,-8.52739 -3.4116,-2.27443 -6.9374,-3.86742 -10.5765,-4.77718 -4.7762,0 -10.8035,2.50153 -18.0817,7.50526 -7.0508,5.00374 -14.5554,11.71305 -22.5158,20.12843 -7.7331,8.41538 -15.5799,18.19497 -23.5404,29.33966 -7.9605,10.91724 -15.1253,22.28982 -21.4937,34.11684 11.5996,-43.21411 26.498,-80.62865 44.6934,-112.24318 18.4228,-31.84198 40.1437,-57.88393 65.1624,-78.12633 -1.3646,-1.59211 -3.5263,-3.41162 -6.4831,-5.4586 -2.7293,-2.04697 -5.6864,-4.09302 -8.8705,-6.14001 -3.1842,-2.04698 -6.3678,-3.86651 -9.552,-5.4586 -3.1842,-1.5921 -5.9146,-2.7296 -8.1891,-3.41192 z m -466.5386,1.02211 c -11.827,14.32889 -23.9949,34.34599 -36.5042,60.04702 -12.2819,25.47358 -25.474,57.42714 -39.5754,95.86495 -8.6428,24.10893 -15.3521,45.26109 -20.1285,63.45651 -4.7762,17.96797 -7.1645,31.95777 -7.1645,41.96525 0,7.27816 0.6844,13.87173 2.0491,19.7853 1.3646,5.68604 3.0685,9.21188 5.1154,10.57651 1.5922,1.13723 3.4116,2.73013 5.4586,4.77721 2.047,2.27434 3.2977,3.98063 3.7527,5.11786 0.6823,1.59203 2.162,2.95616 4.4364,4.09327 2.2744,1.13724 5.0025,1.93256 8.1867,2.38748 -0.2274,-0.90983 -0.3407,-1.81843 -0.3407,-2.72814 v -7.16456 c 0,-14.32888 2.5016,-32.18425 7.5053,-53.56386 5.0037,-21.60706 12.2818,-45.8295 21.8344,-72.66774 11.1447,-31.15965 23.4282,-58.79217 36.8473,-82.9011 13.4192,-24.10892 28.9995,-46.62754 46.74,-67.55227 -0.9098,-1.36466 -2.9582,-3.18417 -6.1424,-5.4586 -2.9567,-2.27443 -6.3668,-4.43373 -10.2334,-6.48072 -3.8665,-2.27443 -7.8478,-4.3229 -11.9417,-6.14244 -3.8665,-1.81955 -7.1657,-2.95705 -9.8951,-3.41193 z m 617.2159,0 c -11.827,14.32889 -23.9949,34.34599 -36.5043,60.04702 -12.2819,25.47358 -25.4715,57.42714 -39.573,95.86495 -8.6428,24.10893 -15.3546,45.26109 -20.1308,63.45651 -4.7764,17.96797 -7.1646,31.95777 -7.1646,41.96525 0,7.27816 0.6844,13.87173 2.0491,19.7853 1.3647,5.68604 3.0685,9.21188 5.1155,10.57651 1.592,1.13723 3.4116,2.73013 5.4586,4.77721 2.047,2.27434 3.3002,3.98063 3.755,5.11786 0.6824,1.59203 2.1597,2.95616 4.4341,4.09327 2.2744,1.13724 5.0025,1.93256 8.1867,2.38748 -0.2275,-0.90983 -0.3407,-1.81843 -0.3407,-2.72814 v -7.16456 c 0,-14.32888 2.5015,-32.18425 7.5052,-53.56386 5.0038,-21.60706 12.2818,-45.8295 21.8344,-72.66774 11.1447,-31.15965 23.4282,-58.79217 36.8474,-82.9011 13.4191,-24.10892 28.9994,-46.62754 46.74,-67.55227 -0.9098,-1.36466 -2.9583,-3.18417 -6.1425,-5.4586 -2.9567,-2.27443 -6.3668,-4.43373 -10.2333,-6.48072 -3.8665,-2.27443 -7.8478,-4.3229 -11.9418,-6.14244 -3.8665,-1.81955 -7.1657,-2.95705 -9.895,-3.41193 z m -478.6726,32.07018 c -10.9173,0 -22.4031,0.79528 -34.4576,2.38738 -11.827,1.59209 -23.3128,3.86709 -34.4575,6.82385 -11.1447,2.72931 -13.6792,5.14749 -23.4592,9.01401 -9.78,3.86653 -12.3596,2.46726 -18.9554,7.01611 0.2274,2.72933 1.0227,5.7996 2.3873,9.21124 1.3647,3.41164 2.9577,6.82171 4.7772,10.23335 1.8195,3.18419 3.7523,6.14121 5.7993,8.87052 2.2744,2.72931 4.4362,4.77779 6.4832,6.14245 10.1904,-10.95188 26.2781,-15.90446 38.3188,-19.78276 -1.8195,6.82328 -3.639,13.0771 -5.4586,18.76317 -1.592,5.68607 -3.4116,11.48683 -5.4586,17.40034 -2.047,5.68608 -4.4352,11.82664 -7.1645,18.42247 -2.7293,6.59584 -5.9128,14.32938 -9.552,23.19965 -8.1879,19.33263 -15.3527,36.27702 -21.4937,50.83335 -5.9135,14.32889 -11.1455,26.7257 -15.6943,37.18807 -4.5489,10.23491 -8.4144,18.877 -11.5987,25.92772 -3.1841,7.05073 -5.9146,12.73585 -8.1891,17.05727 4.5489,7.73299 9.5543,14.10247 15.013,19.1062 5.4586,5.23125 12.5078,8.87023 21.1506,10.9173 4.094,-19.56013 9.6682,-39.68805 16.7189,-60.38533 7.2781,-20.92474 16.6023,-43.78315 27.9744,-68.57441 4.094,4.32142 7.733,7.27844 10.9172,8.87053 3.4116,1.36465 7.9616,2.04667 13.6477,2.04667 15.921,0 30.9302,-2.50153 45.0316,-7.50527 14.3289,-5.00373 26.7257,-11.71305 37.1881,-20.12842 10.6898,-8.64283 19.1054,-18.65137 25.2463,-30.02352 6.3684,-11.37214 9.5519,-23.31346 9.5519,-35.82281 0,-10.00747 -1.9327,-19.10504 -5.7993,-27.29298 -3.8665,-8.18793 -9.4383,-15.23947 -16.7165,-21.15299 -7.2782,-5.9135 -16.1492,-10.46107 -26.6115,-13.64527 -10.4624,-3.41164 -22.1748,-5.11789 -35.139,-5.11789 z m 23.5403,26.27086 c 15.6936,2e-5 27.5192,3.63904 35.4797,10.9172 7.9605,7.05073 11.9418,16.4881 11.9418,28.31511 0,8.87028 -2.957,17.17257 -8.8706,24.90561 -5.686,7.73306 -13.7594,14.55563 -24.2217,20.46914 -10.235,5.68608 -22.6318,10.23607 -37.1881,13.64771 -14.5563,3.18421 -30.7054,4.77475 -48.446,4.77475 5.4587,-11.37213 10.5774,-22.17352 15.3537,-32.40844 5.0037,-10.23492 9.5513,-19.44819 13.6453,-27.63613 4.0939,-8.41539 7.8487,-15.58019 11.2603,-21.49369 3.4116,-5.91351 6.2529,-10.34782 8.5274,-13.30457 l -4.0933,-6.14001 c 9.0977,-1.36466 17.9687,-2.04666 26.6115,-2.04668 z m 655.3652,15.69196 c -1.8196,1.13721 -4.4367,3.63874 -7.8484,7.50526 -3.1842,3.86654 -6.7075,8.64307 -10.574,14.32913 -3.6391,5.45862 -7.5071,11.59919 -11.6011,18.42247 -3.8665,6.59583 -7.5055,13.30758 -10.9172,20.13086 -4.5488,-0.22745 -9.5519,-0.4564 -15.0105,-0.68385 -5.4586,-0.45488 -11.1437,-0.91037 -17.0572,-1.36525 0,3.18419 0.453,7.05218 1.3628,11.60103 0.9097,4.32141 1.934,7.16517 3.0712,8.52983 h 19.447 c -4.3214,10.46236 -8.3026,21.03722 -11.9417,31.72703 -3.6391,10.6898 -6.8226,20.92489 -9.5519,30.70492 -2.7293,9.78003 -4.8911,18.87762 -6.4832,27.29299 -1.3647,8.18794 -2.0467,15.01051 -2.0467,20.46914 0,4.09397 1.4797,8.30174 4.4365,12.62316 2.9568,4.09402 6.7091,7.84875 11.2579,11.26032 4.7763,3.41171 10.0059,6.25298 15.692,8.52745 5.686,2.27435 11.3735,3.52509 17.0597,3.75261 1.8195,-0.22752 4.5475,-1.24925 8.1866,-3.0688 3.639,-1.81955 7.3937,-4.09451 11.2604,-6.8239 3.8665,-2.50187 7.3898,-5.11911 10.574,-7.84837 3.4116,-2.72926 5.7999,-5.11513 7.1645,-7.1622 -0.2274,-1.36463 -1.0227,-3.07085 -2.3873,-5.11784 -4.7763,3.86647 -10.2349,7.05003 -16.3758,9.5519 -6.141,2.50186 -12.6237,4.20815 -19.447,5.11799 -7.5056,-1.13724 -11.2579,-6.70902 -11.2579,-16.71655 0,-7.05072 0.7952,-15.01323 2.3873,-23.88349 1.8196,-8.87027 4.2079,-18.30764 7.1645,-28.31511 3.1843,-10.00749 6.9391,-20.35582 11.2605,-31.04563 4.5488,-10.91725 9.665,-21.83434 15.3512,-32.75159 15.9209,-0.45489 29.4528,-2.72989 40.5975,-6.82386 0,-1.81954 -0.3399,-3.52579 -1.0221,-5.11789 -0.6823,-1.81954 -1.5932,-3.29683 -2.7305,-4.43404 -4.7763,0.45488 -9.5529,0.79468 -14.3291,1.02211 -4.5489,0.22745 -9.0964,0.34071 -13.6453,0.34071 5.686,-9.55259 10.9182,-17.96816 15.6944,-25.24632 5.0037,-7.50561 10.9153,-15.57895 17.7385,-24.22176 -1.1372,-1.36466 -3.1831,-2.72869 -6.1399,-4.09335 -2.9568,-1.36465 -6.2536,-2.61541 -9.8926,-3.75263 -3.6392,-1.36466 -7.2782,-2.38889 -10.9173,-3.07122 -3.4116,-0.90978 -6.2553,-1.36526 -8.5298,-1.36526 z m -526.7462,47.76456 c -10.9172,0 -22.632,4.66084 -35.1414,13.98598 -7.9604,5.91352 -15.3518,12.96504 -22.1751,21.15298 -6.8233,8.18794 -12.7373,16.94329 -17.741,26.26844 -5.0038,9.09771 -8.8694,18.5375 -11.5986,28.31754 -2.7294,9.78003 -4.0934,19.21984 -4.0934,28.31755 0,15.46611 3.8656,28.2027 11.5986,38.21018 7.733,10.00746 18.0814,15.69251 31.0457,17.05726 13.6465,-2.95678 26.1566,-7.95989 37.5287,-15.01057 11.5996,-7.27819 21.4925,-16.14924 29.6804,-26.6116 8.4154,-10.46236 14.8981,-22.06146 19.447,-34.79826 4.7763,-12.96423 7.1646,-26.6118 7.1646,-40.9407 0,-21.37962 -6.0273,-32.06773 -18.0818,-32.06773 -1.1372,0 -2.1614,0.11326 -3.0712,0.34069 h -3.0712 c -7.0507,-12.2819 -14.2131,-20.35524 -21.4913,-24.22176 z m -438.8684,0.6814 c -7.5055,0 -15.1234,1.70627 -22.8565,5.11791 -7.5056,3.41164 -14.8994,8.07491 -22.1775,13.98841 -7.0507,5.91352 -13.76,12.84935 -20.1284,20.80984 -6.141,7.96049 -11.5995,16.48931 -16.3758,25.58703 -4.5489,8.87025 -8.1879,18.19679 -10.9172,27.97683 -2.5019,9.55259 -3.7526,18.98995 -3.7526,28.31511 0,13.64656 4.321,25.36137 12.9638,35.14139 8.8703,9.55254 21.1538,15.23772 36.8474,17.05727 10.9173,-2.50187 22.4031,-8.18704 34.4575,-17.05727 12.2819,-9.0977 23.5388,-20.47027 33.7737,-34.11683 -1.592,-1.81955 -3.5248,-3.75233 -5.7993,-5.79931 -3.639,3.86652 -7.8469,8.18757 -12.6231,12.96387 -4.5489,4.54885 -9.5519,8.86989 -15.0106,12.96386 -5.2311,3.86653 -10.8029,7.16339 -16.7164,9.89265 -5.9136,2.72926 -11.9409,4.09576 -18.0818,4.09576 -3.1842,0 -5.8014,-0.79769 -7.8484,-2.38985 -2.047,-1.81955 -3.6375,-4.09451 -4.7748,-6.8238 -1.1372,-2.72931 -1.9349,-5.6839 -2.3898,-8.8681 -0.4548,-3.1842 -0.6814,-6.25448 -0.6814,-9.21123 v -4.43648 c 0.2274,-1.59211 0.3407,-3.06939 0.3407,-4.43405 14.5563,-5.68607 27.2929,-11.60009 38.2102,-17.74105 10.9173,-6.14095 20.1281,-12.96353 27.6337,-20.46914 7.7331,-7.73305 13.6471,-16.60409 17.741,-26.61157 4.094,-10.23492 6.5956,-22.40278 7.5053,-36.50422 -9.0977,-11.59959 -18.8772,-18.08237 -29.3397,-19.44703 z m 834.4428,0 c -7.5056,0 -15.1259,1.70627 -22.859,5.11791 -7.5056,3.41164 -14.8969,8.07491 -22.1751,13.98841 -7.0507,5.91352 -13.76,12.84935 -20.1284,20.80984 -6.1409,7.96049 -11.5994,16.48931 -16.3758,25.58703 -4.5489,8.87025 -8.1879,18.19679 -10.9172,27.97683 -2.5018,9.55259 -3.7526,18.98995 -3.7526,28.31511 0,13.64656 4.3211,25.36137 12.9639,35.14139 8.8702,9.55254 21.1514,15.23772 36.8449,17.05727 10.9172,-2.50187 22.4031,-8.18704 34.4575,-17.05727 12.282,-9.0977 23.5413,-20.47027 33.7762,-34.11683 -1.5921,-1.81955 -3.5274,-3.75233 -5.8018,-5.79931 -3.6391,3.86652 -7.8444,8.18757 -12.6207,12.96387 -4.5489,4.54885 -9.5544,8.86989 -15.013,12.96386 -5.2312,3.86653 -10.8029,7.16339 -16.7165,9.89265 -5.9134,2.72926 -11.9407,4.09576 -18.0817,4.09576 -3.1842,0 -5.7991,-0.79769 -7.846,-2.38985 -2.047,-1.81955 -3.64,-4.09451 -4.7772,-6.8238 -1.1372,-2.72931 -1.9325,-5.6839 -2.3874,-8.8681 -0.4548,-3.1842 -0.6838,-6.25448 -0.6838,-9.21123 v -4.43648 c 0.2274,-1.59211 0.3431,-3.06939 0.3431,-4.43405 14.5564,-5.68607 27.293,-11.60009 38.2102,-17.74105 10.9173,-6.14095 20.1281,-12.96353 27.6337,-20.46914 7.7331,-7.73305 13.6471,-16.60409 17.7411,-26.61157 4.094,-10.23492 6.5955,-22.40278 7.5053,-36.50422 -9.0978,-11.59959 -18.8773,-18.08237 -29.3397,-19.44703 z m -379.1986,30.02352 c 1.5921,2.50186 2.7296,5.45644 3.4119,8.86808 0.6824,3.41165 1.0222,8.07492 1.0222,13.98843 0,13.41911 -1.8196,26.04245 -5.4586,37.86948 -3.4117,11.82701 -8.3015,22.40432 -14.6699,31.72947 -6.141,9.32515 -13.5323,17.17196 -22.1751,23.54036 -8.4154,6.14097 -17.7419,10.34626 -27.9768,12.62073 -2.2744,-0.68232 -4.3205,-3.5236 -6.14,-8.52745 -1.8195,-5.00368 -2.7305,-10.23571 -2.7305,-15.69433 0,-4.54886 0.6844,-9.66518 2.0491,-15.35124 1.3646,-5.9135 3.2974,-11.94081 5.7993,-18.08176 2.5019,-6.3684 5.4588,-12.62466 8.8705,-18.76561 3.4117,-6.14095 7.0507,-11.82602 10.9172,-17.0572 5.6861,-7.27817 12.3954,-14.21643 20.1284,-20.81228 7.9606,-6.59583 16.9449,-11.36992 26.9523,-14.32668 z m -449.4448,0.6814 c -0.9098,15.69355 -7.3902,30.24967 -19.4446,43.66879 -12.0545,13.19168 -27.1793,24.33529 -45.3748,33.433 2.7294,-10.46236 6.4816,-20.24195 11.2579,-29.33966 4.7763,-9.0977 10.0059,-17.05778 15.692,-23.88106 5.9135,-6.82329 12.1698,-12.28183 18.7656,-16.37579 6.5959,-4.09397 12.9629,-6.5955 19.1039,-7.50528 z m 834.4427,0 c -0.9097,15.69355 -7.3926,30.24967 -19.447,43.66879 -12.0545,13.19168 -27.1794,24.33529 -45.3748,33.433 2.7293,-10.46236 6.4816,-20.24195 11.2579,-29.33966 4.7763,-9.0977 10.0083,-17.05778 15.6944,-23.88106 5.9135,-6.82329 12.1674,-12.28183 18.7632,-16.37579 6.5958,-4.09397 12.9654,-6.5955 19.1063,-7.50528 z"
       style="font-style:normal;font-variant:normal;font-weight:normal;font-stretch:normal;font-size:medium;line-height:213.22792053px;font-family:'Kaushan Script';-inkscape-font-specification:'Kaushan Script';text-align:center;letter-spacing:0px;word-spacing:0px;text-anchor:middle;fill:#000000;fill-opacity:0.2745098;stroke:none;stroke-width:8.52910233px;stroke-linecap:butt;stroke-linejoin:miter;stroke-opacity:1"
       inkscape:connector-curvature="0"
       sodipodi:nodetypes="ccccccscccccccccccccsccccccsccccccccccccccccccccccccsccccccssccccccccccccsccccccssccccccccsccsccccccccsccccccccccscccscccsccsccccccscccccccccccccsscscccccccccccscccccccccccccccccsccssccccsscccccccccsccccccccscccsccsccccccccccsccccccccscccscccccccccscccccsccsccccccsccccccsccc" />
    <path
       inkscape:connector-curvature="0"
       style="font-style:normal;font-variant:normal;font-weight:normal;font-stretch:normal;font-size:medium;line-height:213.22792053px;font-family:'Kaushan Script';-inkscape-font-specification:'Kaushan Script';text-align:center;letter-spacing:0px;word-spacing:0px;text-anchor:middle;fill:#ffffff;fill-opacity:1;stroke:none;stroke-width:8.52910233px;stroke-linecap:butt;stroke-linejoin:miter;stroke-opacity:1"
       d="m 5196.2287,320.90017 c -7.2781,3.18419 -15.0093,9.66697 -23.1972,19.44701 -8.188,9.78003 -16.377,21.71893 -24.5649,35.82038 -7.9606,14.10144 -15.6941,29.6818 -23.1997,46.74 -7.5056,16.83076 -14.1016,34.00411 -19.7877,51.5172 -5.4586,17.51309 -9.8929,34.68399 -13.3046,51.51476 -3.4116,16.83075 -5.1179,31.95563 -5.1179,45.37474 0,4.09397 0.4555,7.05099 1.3653,8.87052 0.4549,0.90978 1.2501,2.04729 2.3874,3.41193 1.1372,1.13722 2.2747,2.15903 3.4119,3.0688 2.5019,1.81954 4.3214,3.41253 5.4586,4.77718 1.1372,1.13721 1.9349,2.27472 2.3898,3.41195 1.5921,4.54881 3.5248,6.82378 5.7993,6.82378 0.4549,-5.68605 2.6142,-13.07733 6.4807,-22.17504 4.094,-9.32515 8.9838,-19.22044 14.6699,-29.68281 5.686,-10.6898 11.9423,-21.38036 18.7656,-32.07017 7.0507,-10.6898 13.8732,-20.35613 20.4691,-28.99896 6.8233,-8.64282 12.9638,-15.69191 18.4225,-21.15053 5.686,-5.68608 10.1228,-8.52983 13.307,-8.52983 2.9567,0.90977 4.434,2.7293 4.434,5.4586 -2.047,12.73679 -5.9125,26.04214 -11.5986,39.91615 -5.6861,13.87401 -12.6243,27.29262 -20.8123,40.25685 -8.1879,12.7368 -17.2855,24.67812 -27.293,35.82281 -10.0074,10.91725 -20.2425,19.90156 -30.7049,26.95224 0,1.13723 0.682,2.27472 2.0467,3.41195 1.5921,1.13723 3.5248,2.16145 5.7993,3.07129 2.5019,1.13711 5.1191,1.93244 7.8484,2.38736 2.9567,0.68231 5.8005,1.0221 8.5298,1.0221 6.3684,0 13.0777,-2.15934 20.1285,-6.48075 7.2782,-4.32141 14.4405,-10.00883 21.4912,-17.05963 7.2781,-7.27815 14.1032,-15.69371 20.4716,-25.2463 6.5958,-9.55259 12.3941,-19.55872 17.3979,-30.02107 5.2312,-10.46237 9.3257,-21.03967 12.2824,-31.72948 3.1842,-10.91725 4.8905,-21.15232 5.1179,-30.70492 -0.4548,-4.09396 -1.5924,-7.95952 -3.4119,-11.5986 -1.8195,-3.86653 -4.0945,-7.39229 -6.8238,-10.57649 -2.7293,-3.41164 -5.7996,-6.25296 -9.2113,-8.52739 -3.4116,-2.27443 -6.9374,-3.86742 -10.5765,-4.77718 -4.7762,0 -10.8035,2.50153 -18.0817,7.50526 -7.0508,5.00374 -14.5554,11.71305 -22.5158,20.12843 -7.7331,8.41538 -15.5799,18.19497 -23.5404,29.33966 -7.9605,10.91724 -15.1253,22.28982 -21.4937,34.11684 11.5996,-43.21411 26.498,-80.62865 44.6934,-112.24318 18.4228,-31.84198 40.1437,-57.88393 65.1624,-78.12633 -1.3646,-1.59211 -3.5263,-3.41162 -6.4831,-5.4586 -2.7293,-2.04697 -5.6864,-4.09302 -8.8705,-6.14001 -3.1842,-2.04698 -6.3678,-3.86651 -9.552,-5.4586 -3.1842,-1.5921 -5.9146,-2.7296 -8.1891,-3.41192 z m -466.5386,1.02211 c -35.757,47.76046 -57.608,105.76255 -76.0796,155.91197 -8.6428,24.10893 -15.3521,45.26109 -20.1285,63.45651 -4.7762,17.96797 -7.1645,31.95777 -7.1645,41.96525 0,7.27816 0.6844,13.87173 2.0491,19.7853 1.3646,5.68604 3.0685,9.21188 5.1154,10.57651 1.5922,1.13723 3.4116,2.73013 5.4586,4.77721 2.047,2.27434 3.2977,3.98063 3.7527,5.11786 0.6823,1.59203 2.162,2.95616 4.4364,4.09327 2.2744,1.13724 5.0025,1.93256 8.1867,2.38748 -0.2274,-0.90983 -0.3407,-1.81843 -0.3407,-2.72814 v -7.16456 c 0,-14.32888 2.5016,-32.18425 7.5053,-53.56386 5.0037,-21.60706 12.2818,-45.8295 21.8344,-72.66774 19.8937,-55.93273 48.2366,-108.4411 83.5873,-150.45337 -0.9098,-1.36466 -2.9582,-3.18417 -6.1424,-5.4586 -2.9567,-2.27443 -6.3668,-4.43373 -10.2334,-6.48072 -3.8665,-2.27443 -7.8478,-4.3229 -11.9417,-6.14244 -3.8665,-1.81955 -7.1657,-2.95705 -9.8951,-3.41193 z m 617.2159,0 c -11.827,14.32889 -23.9949,34.34599 -36.5043,60.04702 -12.2819,25.47358 -25.4715,57.42714 -39.573,95.86495 -8.6428,24.10893 -15.3546,45.26109 -20.1308,63.45651 -4.7764,17.96797 -7.1646,31.95777 -7.1646,41.96525 0,7.27816 0.6844,13.87173 2.0491,19.7853 1.3647,5.68604 3.0685,9.21188 5.1155,10.57651 1.592,1.13723 3.4116,2.73013 5.4586,4.77721 2.047,2.27434 3.3002,3.98063 3.755,5.11786 0.6824,1.59203 2.1597,2.95616 4.4341,4.09327 2.2744,1.13724 5.0025,1.93256 8.1867,2.38748 -0.2275,-0.90983 -0.3407,-1.81843 -0.3407,-2.72814 v -7.16456 c 0,-14.32888 2.5015,-32.18425 7.5052,-53.56386 5.0038,-21.60706 12.2818,-45.8295 21.8344,-72.66774 11.1447,-31.15965 23.4282,-58.79217 36.8474,-82.9011 13.4191,-24.10892 28.9994,-46.62754 46.74,-67.55227 -0.9098,-1.36466 -2.9583,-3.18417 -6.1425,-5.4586 -2.9567,-2.27443 -6.3668,-4.43373 -10.2333,-6.48072 -3.8665,-2.27443 -7.8478,-4.3229 -11.9418,-6.14244 -3.8665,-1.81955 -7.1657,-2.95705 -9.895,-3.41193 z m -478.6726,32.07018 c -10.9173,0 -22.4031,0.79528 -34.4576,2.38738 -11.827,1.59209 -23.4518,3.38551 -34.4575,6.82385 -15.2718,4.77116 -30.0503,6.26845 -42.4146,16.03012 0.2274,2.72933 1.0227,5.7996 2.3873,9.21124 1.3647,3.41164 2.9577,6.82171 4.7772,10.23335 1.8195,3.18419 3.7523,6.14121 5.7993,8.87052 2.2744,2.72931 4.4362,4.77779 6.4832,6.14245 7.1721,-9.86848 24.9066,-15.46271 38.3188,-19.78276 -1.8195,6.82328 -3.639,13.0771 -5.4586,18.76317 -1.592,5.68607 -3.4116,11.48683 -5.4586,17.40034 -2.047,5.68608 -4.4352,11.82664 -7.1645,18.42247 -2.7293,6.59584 -5.9128,14.32938 -9.552,23.19965 -8.1879,19.33263 -15.3527,36.27702 -21.4937,50.83335 -5.9135,14.32889 -11.1455,26.7257 -15.6943,37.18807 -4.5489,10.23491 -8.4144,18.877 -11.5987,25.92772 -3.1841,7.05073 -5.9146,12.73585 -8.1891,17.05727 4.5489,7.73299 9.5543,14.10247 15.013,19.1062 5.4586,5.23125 12.5078,8.87023 21.1506,10.9173 4.094,-19.56013 9.6682,-39.68805 16.7189,-60.38533 7.2781,-20.92474 16.6023,-43.78315 27.9744,-68.57441 4.094,4.32142 7.733,7.27844 10.9172,8.87053 3.4116,1.36465 7.9616,2.04667 13.6477,2.04667 15.921,0 30.9302,-2.50153 45.0316,-7.50527 14.3289,-5.00373 26.7257,-11.71305 37.1881,-20.12842 10.6898,-8.64283 19.1054,-18.65137 25.2463,-30.02352 6.3684,-11.37214 9.5519,-23.31346 9.5519,-35.82281 0,-10.00747 -1.9327,-19.10504 -5.7993,-27.29298 -3.8665,-8.18793 -9.4383,-15.23947 -16.7165,-21.15299 -7.2782,-5.9135 -16.1492,-10.46107 -26.6115,-13.64527 -10.4624,-3.41164 -22.1748,-5.11789 -35.139,-5.11789 z m 23.5403,26.27086 c 15.6936,2e-5 27.5192,3.63904 35.4797,10.9172 7.9605,7.05073 11.9418,16.4881 11.9418,28.31511 0,8.87028 -2.957,17.17257 -8.8706,24.90561 -5.686,7.73306 -13.7594,14.55563 -24.2217,20.46914 -10.235,5.68608 -22.6318,10.23607 -37.1881,13.64771 -14.5563,3.18421 -30.7054,4.77475 -48.446,4.77475 5.4587,-11.37213 10.5774,-22.17352 15.3537,-32.40844 5.0037,-10.23492 9.5513,-19.44819 13.6453,-27.63613 4.0939,-8.41539 7.8487,-15.58019 11.2603,-21.49369 3.4116,-5.91351 6.2529,-10.34782 8.5274,-13.30457 l -4.0933,-6.14001 c 9.0977,-1.36466 17.9687,-2.04666 26.6115,-2.04668 z m 655.3652,15.69196 c -1.8196,1.13721 -4.4367,3.63874 -7.8484,7.50526 -3.1842,3.86654 -6.7075,8.64307 -10.574,14.32913 -3.6391,5.45862 -7.5071,11.59919 -11.6011,18.42247 -3.8665,6.59583 -7.5055,13.30758 -10.9172,20.13086 -4.5488,-0.22745 -9.5519,-0.4564 -15.0105,-0.68385 -5.4586,-0.45488 -11.1437,-0.91037 -17.0572,-1.36525 0,3.18419 0.453,7.05218 1.3628,11.60103 0.9097,4.32141 1.934,7.16517 3.0712,8.52983 h 19.447 c -4.3214,10.46236 -8.3026,21.03722 -11.9417,31.72703 -3.6391,10.6898 -6.8226,20.92489 -9.5519,30.70492 -2.7293,9.78003 -4.8911,18.87762 -6.4832,27.29299 -1.3647,8.18794 -2.0467,15.01051 -2.0467,20.46914 0,4.09397 1.4797,8.30174 4.4365,12.62316 2.9568,4.09402 6.7091,7.84875 11.2579,11.26032 4.7763,3.41171 10.0059,6.25298 15.692,8.52745 5.686,2.27435 11.3735,3.52509 17.0597,3.75261 1.8195,-0.22752 4.5475,-1.24925 8.1866,-3.0688 3.639,-1.81955 7.3937,-4.09451 11.2604,-6.8239 3.8665,-2.50187 7.3898,-5.11911 10.574,-7.84837 3.4116,-2.72926 5.7999,-5.11513 7.1645,-7.1622 -0.2274,-1.36463 -1.0227,-3.07085 -2.3873,-5.11784 -4.7763,3.86647 -10.2349,7.05003 -16.3758,9.5519 -6.141,2.50186 -12.6237,4.20815 -19.447,5.11799 -7.5056,-1.13724 -11.2579,-6.70902 -11.2579,-16.71655 0,-7.05072 0.7952,-15.01323 2.3873,-23.88349 1.8196,-8.87027 4.2079,-18.30764 7.1645,-28.31511 3.1843,-10.00749 6.9391,-20.35582 11.2605,-31.04563 4.5488,-10.91725 9.665,-21.83434 15.3512,-32.75159 15.9209,-0.45489 29.4528,-2.72989 40.5975,-6.82386 0,-1.81954 -0.3399,-3.52579 -1.0221,-5.11789 -0.6823,-1.81954 -1.5932,-3.29683 -2.7305,-4.43404 -4.7763,0.45488 -9.5529,0.79468 -14.3291,1.02211 -4.5489,0.22745 -9.0964,0.34071 -13.6453,0.34071 5.686,-9.55259 10.9182,-17.96816 15.6944,-25.24632 5.0037,-7.50561 10.9153,-15.57895 17.7385,-24.22176 -1.1372,-1.36466 -3.1831,-2.72869 -6.1399,-4.09335 -2.9568,-1.36465 -6.2536,-2.61541 -9.8926,-3.75263 -3.6392,-1.36466 -7.2782,-2.38889 -10.9173,-3.07122 -3.4116,-0.90978 -6.2553,-1.36526 -8.5298,-1.36526 z m -526.7462,47.76456 c -10.9172,0 -22.632,4.66084 -35.1414,13.98598 -7.9604,5.91352 -15.3518,12.96504 -22.1751,21.15298 -6.8233,8.18794 -12.7373,16.94329 -17.741,26.26844 -5.0038,9.09771 -8.8694,18.5375 -11.5986,28.31754 -2.7294,9.78003 -4.0934,19.21984 -4.0934,28.31755 0,15.46611 3.8656,28.2027 11.5986,38.21018 7.733,10.00746 18.0814,15.69251 31.0457,17.05726 13.6465,-2.95678 26.1566,-7.95989 37.5287,-15.01057 11.5996,-7.27819 21.4925,-16.14924 29.6804,-26.6116 8.4154,-10.46236 14.8981,-22.06146 19.447,-34.79826 4.7763,-12.96423 7.1646,-26.6118 7.1646,-40.9407 0,-21.37962 -6.0273,-32.06773 -18.0818,-32.06773 -1.1372,0 -2.1614,0.11326 -3.0712,0.34069 h -3.0712 c -7.0507,-12.2819 -14.2131,-20.35524 -21.4913,-24.22176 z m -438.8684,0.6814 c -7.5055,0 -15.1234,1.70627 -22.8565,5.11791 -7.5056,3.41164 -14.8994,8.07491 -22.1775,13.98841 -7.0507,5.91352 -13.76,12.84935 -20.1284,20.80984 -6.141,7.96049 -11.5995,16.48931 -16.3758,25.58703 -4.5489,8.87025 -8.1879,18.19679 -10.9172,27.97683 -2.5019,9.55259 -3.7526,18.98995 -3.7526,28.31511 0,13.64656 4.321,25.36137 12.9638,35.14139 8.8703,9.55254 21.1538,15.23772 36.8474,17.05727 10.9173,-2.50187 22.4031,-8.18704 34.4575,-17.05727 12.2819,-9.0977 23.5388,-20.47027 33.7737,-34.11683 -1.592,-1.81955 -3.5248,-3.75233 -5.7993,-5.79931 -3.639,3.86652 -7.8469,8.18757 -12.6231,12.96387 -4.5489,4.54885 -9.5519,8.86989 -15.0106,12.96386 -5.2311,3.86653 -10.8029,7.16339 -16.7164,9.89265 -5.9136,2.72926 -11.9409,4.09576 -18.0818,4.09576 -3.1842,0 -5.8014,-0.79769 -7.8484,-2.38985 -2.047,-1.81955 -3.6375,-4.09451 -4.7748,-6.8238 -1.1372,-2.72931 -1.9349,-5.6839 -2.3898,-8.8681 -0.4548,-3.1842 -0.6814,-6.25448 -0.6814,-9.21123 v -4.43648 c 0.2274,-1.59211 0.3407,-3.06939 0.3407,-4.43405 14.5563,-5.68607 27.2929,-11.60009 38.2102,-17.74105 10.9173,-6.14095 20.1281,-12.96353 27.6337,-20.46914 7.7331,-7.73305 13.6471,-16.60409 17.741,-26.61157 4.094,-10.23492 6.5956,-22.40278 7.5053,-36.50422 -9.0977,-11.59959 -18.8772,-18.08237 -29.3397,-19.44703 z m 834.4428,0 c -7.5056,0 -15.1259,1.70627 -22.859,5.11791 -7.5056,3.41164 -14.8969,8.07491 -22.1751,13.98841 -7.0507,5.91352 -13.76,12.84935 -20.1284,20.80984 -6.1409,7.96049 -11.5994,16.48931 -16.3758,25.58703 -4.5489,8.87025 -8.1879,18.19679 -10.9172,27.97683 -2.5018,9.55259 -3.7526,18.98995 -3.7526,28.31511 0,13.64656 4.3211,25.36137 12.9639,35.14139 8.8702,9.55254 21.1514,15.23772 36.8449,17.05727 10.9172,-2.50187 22.4031,-8.18704 34.4575,-17.05727 12.282,-9.0977 23.5413,-20.47027 33.7762,-34.11683 -1.5921,-1.81955 -3.5274,-3.75233 -5.8018,-5.79931 -3.6391,3.86652 -7.8444,8.18757 -12.6207,12.96387 -4.5489,4.54885 -9.5544,8.86989 -15.013,12.96386 -5.2312,3.86653 -10.8029,7.16339 -16.7165,9.89265 -5.9134,2.72926 -11.9407,4.09576 -18.0817,4.09576 -3.1842,0 -5.7991,-0.79769 -7.846,-2.38985 -2.047,-1.81955 -3.64,-4.09451 -4.7772,-6.8238 -1.1372,-2.72931 -1.9325,-5.6839 -2.3874,-8.8681 -0.4548,-3.1842 -0.6838,-6.25448 -0.6838,-9.21123 v -4.43648 c 0.2274,-1.59211 0.3431,-3.06939 0.3431,-4.43405 14.5564,-5.68607 27.293,-11.60009 38.2102,-17.74105 10.9173,-6.14095 20.1281,-12.96353 27.6337,-20.46914 7.7331,-7.73305 13.6471,-16.60409 17.7411,-26.61157 4.094,-10.23492 6.5955,-22.40278 7.5053,-36.50422 -9.0978,-11.59959 -18.8773,-18.08237 -29.3397,-19.44703 z m -379.1986,30.02352 c 1.5921,2.50186 2.7296,5.45644 3.4119,8.86808 0.6824,3.41165 1.0222,8.07492 1.0222,13.98843 0,13.41911 -1.8196,26.04245 -5.4586,37.86948 -3.4117,11.82701 -8.3015,22.40432 -14.6699,31.72947 -6.141,9.32515 -13.5323,17.17196 -22.1751,23.54036 -8.4154,6.14097 -17.7419,10.34626 -27.9768,12.62073 -2.2744,-0.68232 -4.3205,-3.5236 -6.14,-8.52745 -1.8195,-5.00368 -2.7305,-10.23571 -2.7305,-15.69433 0,-4.54886 0.6844,-9.66518 2.0491,-15.35124 1.3646,-5.9135 3.2974,-11.94081 5.7993,-18.08176 2.5019,-6.3684 5.4588,-12.62466 8.8705,-18.76561 3.4117,-6.14095 7.0507,-11.82602 10.9172,-17.0572 5.6861,-7.27817 12.3954,-14.21643 20.1284,-20.81228 7.9606,-6.59583 16.9449,-11.36992 26.9523,-14.32668 z m -449.4448,0.6814 c -0.9098,15.69355 -7.3902,30.24967 -19.4446,43.66879 -12.0545,13.19168 -27.1793,24.33529 -45.3748,33.433 2.7294,-10.46236 6.4816,-20.24195 11.2579,-29.33966 4.7763,-9.0977 10.0059,-17.05778 15.692,-23.88106 5.9135,-6.82329 12.1698,-12.28183 18.7656,-16.37579 6.5959,-4.09397 12.9629,-6.5955 19.1039,-7.50528 z m 834.4427,0 c -0.9097,15.69355 -7.3926,30.24967 -19.447,43.66879 -12.0545,13.19168 -27.1794,24.33529 -45.3748,33.433 2.7293,-10.46236 6.4816,-20.24195 11.2579,-29.33966 4.7763,-9.0977 10.0083,-17.05778 15.6944,-23.88106 5.9135,-6.82329 12.1674,-12.28183 18.7632,-16.37579 6.5958,-4.09397 12.9654,-6.5955 19.1063,-7.50528 z"
       id="path1029"
       sodipodi:nodetypes="ccccccscccccccccccccsccccccscccccccccccccccccccccccsccccccsscccccccccccsccccccssccccccccscsccccccccsccccccccccscccscccsccsccccccscccccccccccccsscscccccccccccscccccccccccccccccsccssccccsscccccccccsccccccccscccsccsccccccccccsccccccccscccscccccccccscccccsccsccccccsccccccsccc" />
  </g>
</svg>
